caRlo • caRlo
…
#--- stats from stats_nested() / stats_summary() ---#
caRlo:::stats$statistics[1]
#> [[1]]
#> # A tibble: 42 × 3
#>    statistic name  value
#>    <chr>     <chr> <dbl>
#>  1 min       zmean  0.33
#>  2 min       zq90   0.2 
#>  3 min       lai    0.06
#>  4 mean      zmean  8.81
#>  5 mean      zq90  17.7 
#>  6 mean      lai    2.31
#>  7 max       zmean 21.8 
#>  8 max       zq90  34.6 
#>  9 max       lai    6.17
#> 10 var       zmean 28.9 
#> # … with 32 more rows
…
#--- summary stats for a dataset - useful for population parameters ---#
stats_summary(data = caRlo:::plots)
#> # A tibble: 42 × 3
#>    statistic name  value
#>    <chr>     <chr> <dbl>
#>  1 min       zmean  0   
#>  2 min       zq90   0   
#>  3 min       lai    0   
#>  4 mean      zmean  8.71
#>  5 mean      zq90  17.9 
#>  6 mean      lai    2.30
#>  7 max       zmean 25.6 
#>  8 max       zq90  38.3 
#>  9 max       lai    7.09
#> 10 var       zmean 28.7 
#> # … with 32 more rows

#--- boostrap statistics ---#
bootstrap_stats(data = caRlo:::stats, population = population, cores = cores)
#> # A tibble: 378 × 6
#> # Groups:   nSamp, method, statistic, name [378]
#>    nSamp method statistic name  data              bootstrap       
#>    <dbl> <chr>  <chr>     <chr> <list>            <list>          
#>  1   100 lhs    min       zmean <tibble [20 × 1]> <tibble [2 × 6]>
#>  2   100 lhs    min       zq90  <tibble [20 × 1]> <tibble [2 × 6]>
#>  3   100 lhs    min       lai   <tibble [20 × 1]> <tibble [2 × 6]>
#>  4   100 lhs    mean      zmean <tibble [20 × 1]> <tibble [2 × 6]>
#>  5   100 lhs    mean      zq90  <tibble [20 × 1]> <tibble [2 × 6]>
#>  6   100 lhs    mean      lai   <tibble [20 × 1]> <tibble [2 × 6]>
#>  7   100 lhs    max       zmean <tibble [20 × 1]> <tibble [2 × 6]>
#>  8   100 lhs    max       zq90  <tibble [20 × 1]> <tibble [2 × 6]>
#>  9   100 lhs    max       lai   <tibble [20 × 1]> <tibble [2 × 6]>
#> 10   100 lhs    var       zmean <tibble [20 × 1]> <tibble [2 × 6]>
#> # … with 368 more rows
…
